<svg viewBox="0 0 42 42" overflow="visible" xml:space="preserve" xmlns="http://www.w3.org/2000/svg"><g fill="none" stroke="#000"><path stroke-linecap="round" stroke-miterlimit="10" d="M37.3 22H24.9l1.4 6c-2.1-2.7-5.6-5.5-8.3-7 2.7-1.5 6.2-4.3 8.3-7l-1.4 6h12.4c1 0 .9 2 0 2z"/><path stroke-linecap="round" stroke-miterlimit="10"
                                                                                                                                                                                                                                                                                           d="M20.7 20h12.4l-1.4-6c2.1 2.7 5.6 5.5 8.3 7-2.7 1.5-6.2 4.3-8.3 7l1.4-6H20.7c-1 0-.9-2 0-2z"/></g>
    <path fill="currentColor" d="M37.3 22H24.9l1.4 6c-2.1-2.7-5.6-5.5-8.3-7 2.7-1.5 6.2-4.3 8.3-7l-1.4 6h12.4c1 0 .9 2 0 2z"/>
    <path fill="currentColor" d="M20.7 20h12.4l-1.4-6c2.1 2.7 5.6 5.5 8.3 7-2.7 1.5-6.2 4.3-8.3 7l1.4-6H20.7c-1 0-.9-2 0-2z"/></svg>