<?xml version="1.0" encoding="utf-8"?>
<!-- Generator: Adobe Illustrator 24.1.2, SVG Export Plug-In . SVG Version: 6.00 Build 0)  -->
<svg version="1.1" baseProfile="tiny" id="Calque_1"
     xmlns="http://www.w3.org/2000/svg" x="0px" y="0px" viewBox="0 0 42 42"
     overflow="visible" xml:space="preserve">
<circle fill="currentColor" stroke="currentColor" stroke-width="7" stroke-linecap="round" stroke-miterlimit="10" cx="21" cy="21" r="1"/>
</svg>
