<?xml version="1.0" encoding="utf-8"?>
<!-- Generator: Adobe Illustrator 24.1.2, SVG Export Plug-In . SVG Version: 6.00 Build 0)  -->
<svg version="1.1" baseProfile="tiny" id="Calque_1"
     xmlns="http://www.w3.org/2000/svg" x="0px" y="0px" viewBox="0 0 42 42"
     overflow="visible" xml:space="preserve">
<g>
	<g>
		<path fill="currentColor" stroke="currentColor" stroke-linecap="round" stroke-miterlimit="10" d="M22,21.7c0,4.1,0,8.3,0,12.4l6-1.4
			c-2.7,2.1-5.5,5.6-7,8.3c-1.5-2.7-4.3-6.2-7-8.3l6,1.4c0-4.1,0-8.3,0-12.4C20,20.7,22,20.8,22,21.7z"/>
	</g>
</g>
    <g>
	<g>
		<path fill="currentColor" stroke="currentColor" stroke-linecap="round" stroke-miterlimit="10" d="M20,38.3c0-4.1,0-8.3,0-12.4l-6,1.4
			c2.7-2.1,5.5-5.6,7-8.3c1.5,2.7,4.3,6.2,7,8.3l-6-1.4c0,4.1,0,8.3,0,12.4C22,39.3,20,39.2,20,38.3z"/>
	</g>
</g>
</svg>
