<?xml version="1.0" encoding="UTF-8"?>
<svg xmlns="http://www.w3.org/2000/svg" xmlns:xlink="http://www.w3.org/1999/xlink" width="16" height="16" viewBox="0 0 16 16">
    <image width="16" height="16" x="0" y="0" xlink:href="data:img/png;base64,iVBORw0KGgoAAAANSUhEUgAAABAAAAAQBAMAAADt3eJSAAAAMFBMVEUAAAD/2DTRRC7nSTLXXyr0siz///+5PCl7Jxp+TSoAAAAAAAAAAAAAAAAAAAAAAADwqi9fAAAACnRSTlP///////////8AsswszwAAAEhJREFUeJxjmAkFDFgYExgYJjBwghhpIhzCDSBGKiOjgQGIIcrIqKAAYgiKMBuDGaIMzBAREU4oI4STqaAAbA4nAwMDVivQGQAXGjaSqGa7ogAAAABJRU5ErkJggg=="/>
</svg>