<?xml version="1.0" encoding="UTF-8"?>
<svg xmlns="http://www.w3.org/2000/svg" xmlns:xlink="http://www.w3.org/1999/xlink" width="16" height="16" viewBox="0 0 16 16">
    <image width="16" height="16" x="0" y="0" xlink:href="data:img/png;base64,iVBORw0KGgoAAAANSUhEUgAAABAAAAAQBAMAAADt3eJSAAAAGFBMVEUAAAA0/9EaeyQq11ky50P///////8AAABTh8cgAAAAB3RSTlP///////8AGksDRgAAADxJREFUeJxjSIMCBiyMBAYQADFCBRkNFUCMQAZGBzBDkI3FAMYwgjEUwIqFGVgUwNqNjZkU4OZgtwKdAQAzmSVL8KR0IgAAAABJRU5ErkJggg=="/>
</svg>