<?xml version="1.0" encoding="UTF-8"?>
<svg xmlns="http://www.w3.org/2000/svg" xmlns:xlink="http://www.w3.org/1999/xlink" width="16" height="16" viewBox="0 0 16 16">
    <image width="16" height="16" x="0" y="0" xlink:href="data:img/png;base64,iVBORw0KGgoAAAANSUhEUgAAABAAAAAQBAMAAADt3eJSAAAAGFBMVEUAAADEs6NMQz3o1MFrX1b/+/U5My5+TSrTzG78AAAACHRSTlP/////////AN6DvVkAAABgSURBVHicYyiHAgY4AwjYwZjR2MSBQTjEgYFR2ESBQdAIyBAUYmAQFFFgYHIBAic1BgZmQWfjEEMjBaCUo6CRIJDB5KTkoqQCkhI2djQODgJJCTsKQtQIKgqC1MABhu0AO9IZsJ1EcFsAAAAASUVORK5CYII="/>
</svg>