<?xml version="1.0" encoding="utf-8"?>
<!-- Generator: Adobe Illustrator 24.1.2, SVG Export Plug-In . SVG Version: 6.00 Build 0)  -->
<svg xmlns:xlink="http://www.w3.org/1999/xlink" version="1.1" baseProfile="tiny"
     id="Calque_1" xmlns="http://www.w3.org/2000/svg" x="0px" y="0px" viewBox="0 0 16 16"
     overflow="visible" xml:space="preserve">
<image width="16" height="16" xlink:href="data:image/gif;base64,R0lGODlhEAAQANUAADIIAAAAAKyfjhphfVtTRf/44v/33zOJq5iNe/Dfyp6Tg5OIeb+yntrMuP//
/zYwJqyejtDEsE5FOv/u2P/z3cK1o66ikuLTv1lPRPzs1X50ZbKkk//w2qKUhMm8qNbMuOPUvwE5
UPLizLismdjKt+fYwjUvJY2DcmzZ/7Wol35NKgAAAAAAAAAAAAAAAAAAAAAAAAAAAAAAAAAAAAAA
AAAAAAAAAAAAAAAAAAAAAAAAAAAAAAAAAAAAAAAAAAAAACH5BAEAACoALAAAAAAQABAAAAZ+QJVw
SAwQj8fAwIhEBg7MIQCQHKCWVBXAIKBOAc8QtKsVEKagREl5WJ6FX4qhQA/Yp0SASPGhJxQSKVlS
JAEOASaGASeDcBp2DQ0bdh6NWhgXERwIDAgLI41fFhMMBAgVC19wXF+tU6xlZwAQD7QdU2ZZeFt6
ABlelnBaw0dBADs=">
</image>
</svg>
