<?xml version="1.0" encoding="utf-8"?>
<!-- Generator: Adobe Illustrator 24.1.2, SVG Export Plug-In . SVG Version: 6.00 Build 0)  -->
<svg xmlns:xlink="http://www.w3.org/1999/xlink" version="1.1" baseProfile="tiny"
     id="Calque_1" xmlns="http://www.w3.org/2000/svg" x="0px" y="0px" viewBox="0 0 19 19"
     overflow="visible" xml:space="preserve">
<image width="19" height="19" xlink:href="data:image/gif;base64,R0lGODlhEwATALMIAP/dq5tqR3NjUtKzi7GXd496Yh8fH////35NKgAAAAAAAAAAAAAAAAAAAAAA
AAAAACH5BAEAAAgALAAAAAATABMAAARmEMlJq704G7R75kYRjiI2EgaqGptlDMUwADMhCu0UxrQ8
EDZcJfQDyoDBnIRIOBCOzkKJEgo0n9ZDQKrkxAoCwSAsAE+pBVoaZu4ueUhC+TyMsVhcDfee16Du
KB9LTz9uJneCiRMRADs=">
</image>
</svg>
