<?xml version="1.0" encoding="utf-8"?>
<!-- Generator: Adobe Illustrator 24.1.2, SVG Export Plug-In . SVG Version: 6.00 Build 0)  -->
<svg xmlns:xlink="http://www.w3.org/1999/xlink" version="1.1" baseProfile="tiny"
     id="Calque_1" xmlns="http://www.w3.org/2000/svg" x="0px" y="0px" viewBox="0 0 19 19"
     overflow="visible" xml:space="preserve">
<image width="19" height="19" xlink:href="data:image/gif;base64,R0lGODlhEwATAKIHAP/////6onQ8Df/Za/2dSrRpKgYGBn5NKiH5BAEAAAcALAAAAAATABMAAANX
eLrc/jDKaKqdx5TNjdRDOBBE4T1gGKwBIZyNxhLWYDqgZQi89sYFG0AwEAw3P4aGMApykLBFqhAY
lW64ArPAI3GjSpKYhkVpSxUXGDguU55riA5DPyQAADs=">
</image>
</svg>
