<?xml version="1.0" encoding="utf-8"?>
<!-- Generator: Adobe Illustrator 24.1.2, SVG Export Plug-In . SVG Version: 6.00 Build 0)  -->
<svg xmlns:xlink="http://www.w3.org/1999/xlink" version="1.1" baseProfile="tiny"
     id="Calque_1" xmlns="http://www.w3.org/2000/svg" x="0px" y="0px" viewBox="0 0 16 16"
     overflow="visible" xml:space="preserve">
<image width="16" height="16" xlink:href="data:image/gif;base64,R0lGODlhEAAQAMQVAAAAAGc6GWBEF7NpM///m//Xf9R+Pn9IH/9mJ49RI515Om8/GzIhALNEHo1R
Jv+SRkDVXiirQdw8BBB8Jf/xnH5NKgAAAAAAAAAAAAAAAAAAAAAAAAAAAAAAAAAAAAAAACH5BAEA
ABUALAAAAAAQABAAAAVfYCWOZGmeJKCubKsSMFHIxUwouCrsfMALjKDKMAgYAxCjw5A4LIbFBgIS
UTKd0ACC8phYm0/AoIh4SBDGwTU8DkgRjfRa1T4Gimqw7scHCgEwMzWDMzgKLogsKIuMJSEAOw==">
</image>
</svg>
