<?xml version="1.0" encoding="utf-8"?>
<!-- Generator: Adobe Illustrator 24.1.2, SVG Export Plug-In . SVG Version: 6.00 Build 0)  -->
<svg xmlns:xlink="http://www.w3.org/1999/xlink" version="1.1" baseProfile="tiny"
     id="Calque_1" xmlns="http://www.w3.org/2000/svg" x="0px" y="0px" viewBox="0 0 16 16"
     overflow="visible" xml:space="preserve">
<image width="16" height="16" xlink:href="data:image/gif;base64,R0lGODlhEAAQAMQbAAAAAIAAAJ0LAOvRuEJuAHOqAKTlALoYAP/z1/9EAOovAL6plE59AGZaT//b
ldD/DJKBcf+2cKORf//Jg/fDg91UJi5NAM5OJsAiAP//5f/Ign5NKgAAAAAAAAAAAAAAACH5BAEA
ABsALAAAAAAQABAAAAWJ4CaKQAmMKAowRXtupsqYQFESxgvPx0FhOMKDoCsdApFE4mAYlkaAwyAT
0CQUTEOBCAsgAoFrZGIgPruLgMLhECjKghcAMkAMGuBB+RAnDQAIAAMLAwF7AlyCCHaFARcJBgJx
NgAWjHgVkpIBNSeCDQMSA5oCnJ0kBQGICxA3LlAELmcxKmcpIyEAOw==">
</image>
</svg>
