<?xml version="1.0" encoding="utf-8"?>
<!-- Generator: Adobe Illustrator 24.1.2, SVG Export Plug-In . SVG Version: 6.00 Build 0)  -->
<svg xmlns:xlink="http://www.w3.org/1999/xlink" version="1.1" baseProfile="tiny"
     id="Calque_1" xmlns="http://www.w3.org/2000/svg" x="0px" y="0px" viewBox="0 0 16 16"
     overflow="visible" xml:space="preserve">
<image width="16" height="16" xlink:href="data:image/gif;base64,R0lGODlhEAAQALMPAAAAAC0SALG2baWlpc3Tfp+jYevNH65gKXh7SI2RVYF5c2JkO////+Xl5cyW
JH5NKiH5BAEAAA8ALAAAAAAQABAAAAR58Mk5gQX0YgmQONcDJISQYCNBOIYBAoQlWOXyWQatCqUg
IJaDi5YoGI2JGSCHqh0RJZxFVCosFohCFCB8VReJ7FYK8BUQ6IJvs5QJAvB4HMQkJAKMAWOvV8CZ
HgENAw2FhAMDQxcBAwqIjY8gFIyOiI5+ARQPcpwUEQA7">
</image>
</svg>
