<?xml version="1.0" encoding="UTF-8"?>
<svg xmlns="http://www.w3.org/2000/svg" xmlns:xlink="http://www.w3.org/1999/xlink" width="19" height="19" viewBox="0 0 19 19">
    <image width="19" height="19" x="0" y="0" xlink:href="data:img/png;base64,iVBORw0KGgoAAAANSUhEUgAAABMAAAATBAMAAACAfiv/AAAAGFBMVEX9nUp0PA3/+qL/2WsGBga0aSp+TSoAAADFAQkfAAAAB3RSTlP///////8AGksDRgAAAGlJREFUeJxtzs0NgCAMBlAuDmAMC5QFjIQNSu9Ie/fQuP8ICpSDiT29pH+fu2dd7ktFJGMW4UGtcV+oMx8QHRujUSsABKFOfMtYttV76rOhSplrZ/Jsd0Vk3FVpW/a4Jp5xWt9CIv7kNT6eLj/AZxis7gAAAABJRU5ErkJggg=="/>
</svg>