<?xml version="1.0" encoding="UTF-8"?>
<svg xmlns="http://www.w3.org/2000/svg" xmlns:xlink="http://www.w3.org/1999/xlink" width="16" height="16" viewBox="0 0 16 16">
    <image width="16" height="16" x="0" y="0" xlink:href="data:img/png;base64,iVBORw0KGgoAAAANSUhEUgAAABAAAAAQBAMAAADt3eJSAAAAGFBMVEUAAAA0/9Eq11kaeyQy50MFBQX///////8PJ/o0AAAACHRSTlP/////////AN6DvVkAAABGSURBVHicYyiHAgYsDAYQYAcy2BIVBJXBDAEBESYQg1FUwYUZzBBScDEGM1QVnBkgDAdndpB2JhUDY3aIOQEM7NitQGcAAMIKKDTzf7J7AAAAAElFTkSuQmCC"/>
</svg>