<?xml version="1.0" encoding="utf-8"?>
<!-- Generator: Adobe Illustrator 24.1.2, SVG Export Plug-In . SVG Version: 6.00 Build 0)  -->
<svg xmlns:xlink="http://www.w3.org/1999/xlink" version="1.1" baseProfile="tiny"
     id="Calque_1" xmlns="http://www.w3.org/2000/svg" x="0px" y="0px" viewBox="0 0 16 16"
     overflow="visible" xml:space="preserve">
<image width="16" height="16" xlink:href="data:image/gif;base64,R0lGODlhEAAQANUAAGE2D9CgSLWCNotcIuu9Wf/NYff1Eff1EqoOB9xdCvOmDeqyCv//EdCfR8Un
Asd0NLguE//6EcpkK+qYC/fxE/fcEsUbA6pOGsZFGo8aB++pDLQAAN1nDPisEsUmAos9IZctGf/g
Es+ZRYxTJ7kDAs4mBbEiDf/NE2U0Dq4AANpHCLuMPa0EAakLA7V8NHZJGeNyCpVjJoFIKLUMBc4o
Bfj1EIo4Ht+9NLdVI+qGDH5NKgAAAAAAAAAAAAAAAAAAACH5BAEAADoALAAAAAAQABAAAAaQQJ1w
qAMAiEgigFAwHpNCY0OwbEKXBAF1+kQCCoUBdTAweqkAcXoA7hbDArJRkHUDXmRxgBAIUJUBYnx9
fm5Fe4R9WoYAK4lacW4xhyIBNzguGU8yQhc6LBIzARgQHC06IDoJOjYmCDQqJQ8pChobCAoIIx8W
IQsnHhEOEwwwDjkMCwgkHRUHBtA1FNHPBwlBADs=">
</image>
</svg>
