<?xml version="1.0" encoding="utf-8"?>
<!-- Generator: Adobe Illustrator 24.1.2, SVG Export Plug-In . SVG Version: 6.00 Build 0)  -->
<svg xmlns:xlink="http://www.w3.org/1999/xlink" version="1.1" baseProfile="tiny"
     id="Calque_1" xmlns="http://www.w3.org/2000/svg" x="0px" y="0px" viewBox="0 0 16 16"
     overflow="visible" xml:space="preserve">
<image width="16" height="16" xlink:href="data:image/gif;base64,R0lGODlhEAAQALMAAAAAAP/jm93d3aWlpbq6upCQkMzMzH9/f////+7u7n5NKgAAAAAAAAAAAAAA
AAAAACH5BAEAAAoALAAAAAAQABAAAARYUKlApZ002ABAzp23AUJolprEDQLiCvAhqsBg33YxTzUB
CwTCQJfiFQamw3DHOSaXxSYhAQtCRwVfVUjEEgzbKy0rMBis3fE3LCsay+dC+0IzddyXT+YSAQA7">
</image>
</svg>
