<?xml version="1.0" encoding="UTF-8"?>
<svg xmlns="http://www.w3.org/2000/svg" xmlns:xlink="http://www.w3.org/1999/xlink" width="16" height="16" viewBox="0 0 16 16">
    <image width="16" height="16" x="0" y="0" xlink:href="data:img/png;base64,iVBORw0KGgoAAAANSUhEUgAAABAAAAAQBAMAAADt3eJSAAAAMFBMVEUAAADq/0WXpSr////u/23/tQL/2DTCZBl+TSoAAAAAAAAAAAAAAAAAAAAAAAAAAACHlEiyAAAACXRSTlP//////////wBTT3gSAAAAQ0lEQVR4nGPogAIG/AwGKKPBoIGBAcRgdmAwTgAyGoxcHNIDgAxmJSWHcBCjQUhQIBwk1cEowBAGZjQIQHXBzcFlFwDITjcju4aF9gAAAABJRU5ErkJggg=="/>
</svg>