<?xml version="1.0" encoding="UTF-8"?>
<svg xmlns="http://www.w3.org/2000/svg" xmlns:xlink="http://www.w3.org/1999/xlink" width="16" height="16" viewBox="0 0 16 16">
    <image width="16" height="16" x="0" y="0" xlink:href="data:img/png;base64,iVBORw0KGgoAAAANSUhEUgAAABAAAAAQBAMAAADt3eJSAAAAGFBMVEUAAADq/0WXpSru/20AAAAAAAAAAAAAAAAYw3BiAAAABXRSTlP/////APu2DlMAAAAsSURBVHicY3CBAga8DAcWGMMAxjBkgTKMBKAMJUUWCEMIJiIIUyOAbg4uuwDU4x8eK1XQRAAAAABJRU5ErkJggg=="/>
</svg>