<?xml version="1.0" encoding="utf-8"?>
<!-- Generator: Adobe Illustrator 24.1.2, SVG Export Plug-In . SVG Version: 6.00 Build 0)  -->
<svg xmlns:xlink="http://www.w3.org/1999/xlink" version="1.1" baseProfile="tiny"
     id="Calque_1" xmlns="http://www.w3.org/2000/svg" x="0px" y="0px" viewBox="0 0 16 17"
     overflow="visible" xml:space="preserve">
<image width="16" height="17" xlink:href="data:image/gif;base64,R0lGODlhEAARAMQVAAAAALRXJTw8PLKysicnJ99vMv+2kvCKV9HR0VWA4UlJSeJSUlLiWP/i1NjX
17GxsbFVJNDQ0JxLII9FHeqGVX5NKgAAAAAAAAAAAAAAAAAAAAAAAAAAAAAAAAAAAAAAACH5BAEA
ABUALAAAAAAQABEAAAVvYFUBYlmSJoCQqAgsrTuo7RsD8+yycDrOgEQCQHAAYqNTMEFgMG7QYw1g
aLBcphHFEDgoAF/qMRUoBAxEAuFsVUIKB+khUEZJAea44lCQ7lZEUhMSAAIRLAI4RwMDgIUPdolH
ApQsY0o7NVknPiUhADs=">
</image>
</svg>
