<?xml version="1.0" encoding="utf-8"?>
<!-- Generator: Adobe Illustrator 24.1.2, SVG Export Plug-In . SVG Version: 6.00 Build 0)  -->
<svg xmlns:xlink="http://www.w3.org/1999/xlink" version="1.1" baseProfile="tiny"
     id="Calque_1" xmlns="http://www.w3.org/2000/svg" x="0px" y="0px" viewBox="0 0 16 16"
     overflow="visible" xml:space="preserve">
<image width="16" height="16" xlink:href="data:image/gif;base64,R0lGODlhEAAQAMQWAC4zTkUYAERNHZeDa2lyNf/Th4CNRoKORq29YwcLACEoBZ6tWTxEF255OSAn
BSsyDLvMbYOOTHWCPZOhViUrCF1nLn5NKgAAAAAAAAAAAAAAAAAAAAAAAAAAAAAAAAAAACH5BAEA
ABYALAAAAAAQABAAAAVjoCWOZEkCwICu68kCBesOhfqqI1qjdhC0IpgNFUAYfidaD3E4EJAvItP5
RAVjgOKCwBUIAsFVYJFIGAheQSQakCgelbQPYBEbEgyK+dsiThReDA4NEDJ1WT6Jc1ZhUYYmkCMh
ADs=">
</image>
</svg>
