<?xml version="1.0" encoding="utf-8"?>
<!-- Generator: Adobe Illustrator 24.1.2, SVG Export Plug-In . SVG Version: 6.00 Build 0)  -->
<svg xmlns:xlink="http://www.w3.org/1999/xlink" version="1.1" baseProfile="tiny"
     id="Calque_1" xmlns="http://www.w3.org/2000/svg" x="0px" y="0px" viewBox="0 0 16 17"
     overflow="visible" xml:space="preserve">
<image width="16" height="17" xlink:href="data:image/gif;base64,R0lGODlhEAARANUxABYWFgAAAHquM09xITw8PFlZWU1tIH+1NbHYevLly4mJicHglqDQXqTSZLTa
f4fAOLTagI7HP5jMUHl5eZycnGZmZktrH5ubm09wIW9vb2JiYpbLTXBwcIGBgZLJRYnDOZTKSpDI
Qp3PWH5+fouLi7LZfa3XdIzGPIaGhoqKioeHh4W9N1NTU4K5Njs7O1RUVIS8N35NKgAAAAAAAAAA
AAAAAAAAAAAAAAAAAAAAAAAAAAAAAAAAAAAAAAAAAAAAACH5BAEAADEALAAAAAAQABEAAAadwJhw
KAwQAMcjkRgoIJ/KZawZGAKuzIBWo60+hwFOh0RJKEavwBVQrExQiksipcqwAi72tMvnY4UDMRYx
BjEYhDEATkIGAjEHjzGOAgYAapIxMDEnMR4xITGBAouAMQ2hMQwxK4mXQiIxEDElMQgxEomLjrYL
Mb2BJpKupjEOxbWpuXoxEagbMSAxD60AjjEtMR/SkYHVy5OY4JYAQQA7">
</image>
</svg>
