<?xml version="1.0" encoding="UTF-8"?>
<svg xmlns="http://www.w3.org/2000/svg" xmlns:xlink="http://www.w3.org/1999/xlink" width="16" height="16" viewBox="0 0 16 16">
    <image width="16" height="16" x="0" y="0" xlink:href="data:img/png;base64,iVBORw0KGgoAAAANSUhEUgAAABAAAAAQBAMAAADt3eJSAAAAGFBMVEUAAADtlxb/1Rf//03////////////////cMBg8AAAACHRSTlP/////////AN6DvVkAAAA9SURBVHicYyiHAgYsjAIGEAAxXAxZjARADCcGZgUww4iBSQDMMDZkEoSLgBUbAhlg7YqCjAJwc7Bbgc4AAJ+xKpFaXmOGAAAAAElFTkSuQmCC"/>
</svg>