<?xml version="1.0" encoding="utf-8"?>
<!-- Generator: Adobe Illustrator 24.1.2, SVG Export Plug-In . SVG Version: 6.00 Build 0)  -->
<svg xmlns:xlink="http://www.w3.org/1999/xlink" version="1.1" baseProfile="tiny"
     id="Calque_1" xmlns="http://www.w3.org/2000/svg" x="0px" y="0px" viewBox="0 0 24 19"
     overflow="visible" xml:space="preserve">
<image width="24" height="19" xlink:href="data:image/gif;base64,R0lGODlhGAATAMQYAFg2HWtCJNS0htu6jNq6iox1VOC+js+wg9KxhaiNZp+GYl1LM9a2h5yDX8Wm
fH9qS35nSMusf2RSONu7jI53Vb6hd6OKZJd+W35NKgAAAAAAAAAAAAAAAAAAAAAAAAAAACH5BAEA
ABgALAAAAAAYABMAAAU5ICaOZGmeaKqubOu+cCzPLmDbMjAZQwTEAIUlcWkABQwCYhGAAQSOQ+XR
jBUoEEk1FuhuaeCwWBYCADs=">
</image>
</svg>
