<?xml version="1.0" encoding="UTF-8"?>
<svg xmlns="http://www.w3.org/2000/svg" xmlns:xlink="http://www.w3.org/1999/xlink" width="19" height="19" viewBox="0 0 19 19">
    <image width="19" height="19" x="0" y="0" xlink:href="data:img/png;base64,iVBORw0KGgoAAAANSUhEUgAAABMAAAATBAMAAACAfiv/AAAAMFBMVEX///97g1mUnmt2RzNPJxbL2ZOvaUwAAAB+TSoAAAAAAAAAAAAAAAAAAAAAAAAAAADtvs3cAAAACXRSTlP//////////wBTT3gSAAAAUUlEQVR4nGPogIEGBjRmeQWM2a6qDmeyssOZoeFICoCqwcxCZ8dQCLO8yMyoCMIsDU9Lb4eoLSpPS4dqa283cYebkGJOgGmCJJoOZ5aXozkdACKsW05nN8PmAAAAAElFTkSuQmCC"/>
</svg>