<svg xmlns="http://www.w3.org/2000/svg" width="96" height="96" viewBox="0 0 96 96">
    <rect fill="currentColor" id="r1_b_d" x="54" y="54" width="8" height="42"/>
    <rect fill="currentColor" id="r1_d_b" x="54" y="54" width="42" height="8"/>
</svg>
