<svg xmlns="http://www.w3.org/2000/svg" width="96" height="96" viewBox="0 0 96 96">
    <rect fill="currentColor" id="r2_b_d" x="34" y="54" width="62" height="8"/>
    <rect fill="currentColor" id="r2_g_h" x="34" width="8" height="62"/>
</svg>
