<svg xmlns="http://www.w3.org/2000/svg" width="24" height="24" viewBox="0 0 6.35 6.35">
    <path d="M1.5875 1.323v.2645h.2646v-.2646zm0 .2645h-.2646v.2646h.2646zm2.9104-.2646v.2646h.2646v-.2646zm.2646.2646v.2646h.2646v-.2646zM3.9688 3.175v.2646h.2645v.2646h.2646V3.175h-.2646Zm-2.3813.5292v.2646h.2646v-.2646zm.7938 0v.2646h.2645v-.2646zm.7937.2646v.2645h.2646v-.2645zm-1.5875.2645v.5292h1.0583v-.2646H1.8521v-.2646zm2.3813 0v.2646h.2645v-.2646z"
          opacity=".3"/>
    <path d="M1.0583 1.0583V5.2917H5.2917V1.0583H1.3229Zm.5292.2646H4.7625v.2646h.2646V5.0271H1.3229V1.5875h.2646Zm1.323 1.8521v.2646h-.2647v.2646H3.4396v.2645h.5291v-.2645h-.2645v-.2646h-.2646V3.175H3.175Zm-1.323.7937v.2646h.2646v-.2645Zm.2646.2646v.2646h.5291v-.2646h-.2645Zm2.3812-.2645v.2645h.2646v-.2645Zm-1.5875.5291v.2646h1.0584v-.2646H2.9104Z"
          opacity=".3"/>
    <path d="M1.852 1.323v.2645h-.2645v.2646h-.2646V5.027H5.0271V1.852h-.2646v-.2646h-.2646v-.2646H2.1167Zm1.0584 1.852H3.7042v.2646h.2645V3.175h.5292v.5292h-.2646v.2645h.2646v.2646h-.2646v.2646h.5292v.2646H1.5875V3.7042h1.0583v-.2646h.2646Zm-.2646.5292v.2645H3.4396v-.2645h-.5292Zm.7938.2645v.2646H4.2333v-.2645h-.5291Zm.7937-.2645v-.2646h-.2645v.2646z"
          opacity=".3"/>
    <path fill="CurrentColor" d="M1.0583 1.0583h4.2333v4.2333H1.0583z"/>
    <path d="M1.5875 1.323v.2645h.2646v-.2646zm0 .2645h-.2646v.2646h.2646zm2.9104-.2646v.2646h.2646v-.2646zm.2646.2646v.2646h.2646v-.2646zM3.9688 3.175v.2646h.2645v.2646h.2646V3.175h-.2646Zm-2.3813.5292v.2646h.2646v-.2646zm.7938 0v.2646h.2645v-.2646zm.7937.2646v.2645h.2646v-.2645zm-1.5875.2645v.5292h1.0583v-.2646H1.8521v-.2646zm2.3813 0v.2646h.2645v-.2646z"
          opacity=".3"/>
    <path d="M1.852 1.323v.2645h-.2645v.2646h-.2646V5.027H5.0271V1.852h-.2646v-.2646h-.2646v-.2646H2.1167Zm1.0584 1.852H3.7042v.2646h.2645V3.175h.5292v.5292h-.2646v.2645h.2646v.2646h-.2646v.2646h.5292v.2646H1.5875V3.7042h1.0583v-.2646h.2646Zm-.2646.5292v.2645H3.4396v-.2645h-.5292Zm.7938.2645v.2646H4.2333v-.2645h-.5291Zm.7937-.2645v-.2646h-.2645v.2646z"
          opacity=".3"/>
    <path d="M1.852 1.323v.2645h-.2645v.2646h-.2646V5.027H5.0271V1.852h-.2646v-.2646h-.2646v-.2646H2.1167Zm1.0584 1.852H3.7042v.2646h.2645V3.175h.5292v.5292h-.2646v.2645h.2646v.2646h-.2646v.2646h.5292v.2646H1.5875V3.7042h1.0583v-.2646h.2646Zm-.2646.5292v.2645H3.4396v-.2645h-.5292Zm.7938.2645v.2646H4.2333v-.2645h-.5291Zm.7937-.2645v-.2646h-.2645v.2646z"
          opacity=".3"/>
    <path d="M1.852 1.323v.2645h-.2645v.2646h-.2646V5.027H5.0271V1.852h-.2646v-.2646h-.2646v-.2646H2.1167Zm1.0584 1.852H3.7042v.2646h.2645V3.175h.5292v.5292h-.2646v.2645h.2646v.2646h-.2646v.2646h.5292v.2646H1.5875V3.7042h1.0583v-.2646h.2646Zm-.2646.5292v.2645H3.4396v-.2645h-.5292Zm.7938.2645v.2646H4.2333v-.2645h-.5291Zm.7937-.2645v-.2646h-.2645v.2646z"
          opacity=".3"/>
</svg>