<?xml version="1.0" encoding="utf-8"?>
<!-- Generator: Adobe Illustrator 24.1.2, SVG Export Plug-In . SVG Version: 6.00 Build 0)  -->
<svg version="1.1" baseProfile="tiny" id="Calque_1"
     xmlns="http://www.w3.org/2000/svg" x="0px" y="0px" viewBox="0 0 24 24"
     overflow="visible" xml:space="preserve">
<rect x="3" width="2" height="21"/>
    <rect x="19" width="2" height="21"/>
    <rect x="3" y="19" width="18" height="2"/>
</svg>
