<?xml version="1.0" encoding="utf-8"?>
<!-- Generator: Adobe Illustrator 24.1.2, SVG Export Plug-In . SVG Version: 6.00 Build 0)  -->
<svg version="1.1" id="Calque_1" xmlns="http://www.w3.org/2000/svg" x="0px" y="0px"
     viewBox="0 0 24 24" style="enable-background:new 0 0 24 24;" xml:space="preserve">
<rect x="3" y="3" width="2" height="18"/>
    <rect x="3" y="3" width="16" height="2"/>
    <rect x="3" y="19" width="16" height="2"/>
    <rect x="19" y="3" width="2" height="18"/>
</svg>
