<svg xmlns="http://www.w3.org/2000/svg" width="80" zoomAndPan="magnify" viewBox="0 0 60 40.499999" height="54" preserveAspectRatio="xMidYMid meet" version="1.0">
    <defs>
        <clipPath id="823c4c2c41">
            <path d="M 0.367188 0 L 59.632812 0 L 59.632812 40.007812 L 0.367188 40.007812 Z M 0.367188 0 " clip-rule="nonzero"/>
        </clipPath>
        <clipPath id="7f63d0b5eb">
            <path d="M 0.367188 26.539062 L 23.777344 26.539062 L 23.777344 40.007812 L 0.367188 40.007812 Z M 0.367188 26.539062 " clip-rule="nonzero"/>
        </clipPath>
        <clipPath id="cd041bda41">
            <path d="M 36.222656 0 L 59.632812 0 L 59.632812 13.78125 L 36.222656 13.78125 Z M 36.222656 0 " clip-rule="nonzero"/>
        </clipPath>
        <clipPath id="a48740e3f0">
            <path d="M 0.367188 0 L 59.632812 0 L 59.632812 40.007812 L 0.367188 40.007812 Z M 0.367188 0 " clip-rule="nonzero"/>
        </clipPath>
        <clipPath id="6b2ca26ed5">
            <path d="M 59.003906 -3.234375 L 61.421875 0.0976562 L 1.203125 43.839844 L -1.214844 40.511719 Z M 59.003906 -3.234375 " clip-rule="nonzero"/>
        </clipPath>
        <clipPath id="0c89862135">
            <path d="M 59.003906 -3.234375 L 61.421875 0.0976562 L 1.203125 43.839844 L -1.214844 40.511719 Z M 59.003906 -3.234375 " clip-rule="nonzero"/>
        </clipPath>
        <clipPath id="d9e79a489d">
            <path d="M 0.367188 0 L 23.777344 0 L 23.777344 13.78125 L 0.367188 13.78125 Z M 0.367188 0 " clip-rule="nonzero"/>
        </clipPath>
        <clipPath id="b1ee09de54">
            <path d="M 36.222656 26.226562 L 59.632812 26.226562 L 59.632812 40.007812 L 36.222656 40.007812 Z M 36.222656 26.226562 " clip-rule="nonzero"/>
        </clipPath>
        <clipPath id="aafcd952cf">
            <path d="M 0.367188 0 L 59.632812 0 L 59.632812 40.007812 L 0.367188 40.007812 Z M 0.367188 0 " clip-rule="nonzero"/>
        </clipPath>
        <clipPath id="28d17092bb">
            <path d="M 62.980469 37.269531 L 59.109375 43.234375 L -3.332031 2.726562 L 0.539062 -3.238281 Z M 62.980469 37.269531 " clip-rule="nonzero"/>
        </clipPath>
        <clipPath id="4466943fb3">
            <path d="M 62.980469 37.269531 L 59.109375 43.234375 L -3.332031 2.726562 L 0.539062 -3.238281 Z M 62.980469 37.269531 " clip-rule="nonzero"/>
        </clipPath>
        <clipPath id="74a792dbe3">
            <path d="M 23.777344 0 L 36.222656 0 L 36.222656 40.007812 L 23.777344 40.007812 Z M 23.777344 0 " clip-rule="nonzero"/>
        </clipPath>
        <clipPath id="f33ef24ae1">
            <path d="M 0.367188 18 L 33 18 L 33 40.007812 L 0.367188 40.007812 Z M 0.367188 18 " clip-rule="nonzero"/>
        </clipPath>
        <clipPath id="e9a534395e">
            <path d="M 0.367188 13.777344 L 59.632812 13.777344 L 59.632812 26.222656 L 0.367188 26.222656 Z M 0.367188 13.777344 " clip-rule="nonzero"/>
        </clipPath>
        <clipPath id="eee717534e">
            <path d="M 0.367188 0 L 28 0 L 28 25 L 0.367188 25 Z M 0.367188 0 " clip-rule="nonzero"/>
        </clipPath>
        <clipPath id="dedde3fc96">
            <path d="M 30 13 L 59.632812 13 L 59.632812 40.007812 L 30 40.007812 Z M 30 13 " clip-rule="nonzero"/>
        </clipPath>
        <clipPath id="b429e5d3d3">
            <path d="M 23 0 L 59.632812 0 L 59.632812 33 L 23 33 Z M 23 0 " clip-rule="nonzero"/>
        </clipPath>
        <clipPath id="9391aa4ecf">
            <path d="M 0.367188 6 L 38 6 L 38 40.007812 L 0.367188 40.007812 Z M 0.367188 6 " clip-rule="nonzero"/>
        </clipPath>
        <clipPath id="e60f4bec5d">
            <path d="M 0.367188 16.441406 L 59.632812 16.441406 L 59.632812 23.851562 L 0.367188 23.851562 Z M 0.367188 16.441406 " clip-rule="nonzero"/>
        </clipPath>
        <clipPath id="767fa87c3e">
            <path d="M 27 0 L 59.632812 0 L 59.632812 22 L 27 22 Z M 27 0 " clip-rule="nonzero"/>
        </clipPath>
        <clipPath id="1b108041cd">
            <path d="M 26.445312 0 L 33.554688 0 L 33.554688 40.007812 L 26.445312 40.007812 Z M 26.445312 0 " clip-rule="nonzero"/>
        </clipPath>
        <clipPath id="540f30969f">
            <path d="M 18 9 L 59.632812 9 L 59.632812 40.007812 L 18 40.007812 Z M 18 9 " clip-rule="nonzero"/>
        </clipPath>
        <clipPath id="fec228b85b">
            <path d="M 0.367188 0 L 41 0 L 41 31 L 0.367188 31 Z M 0.367188 0 " clip-rule="nonzero"/>
        </clipPath>
    </defs>
    <g clip-path="url(#823c4c2c41)">
        <path fill="#ffffff" d="M 0.367188 0 L 59.632812 0 L 59.632812 40.007812 L 0.367188 40.007812 Z M 0.367188 0 " fill-opacity="1" fill-rule="nonzero"/>
        <path fill="#ffffff" d="M 0.367188 0 L 59.632812 0 L 59.632812 40.007812 L 0.367188 40.007812 Z M 0.367188 0 " fill-opacity="1" fill-rule="nonzero"/>
    </g>
    <g clip-path="url(#7f63d0b5eb)">
        <path fill="#012169" d="M -2.199219 26.539062 L 23.777344 26.539062 L 23.777344 42.347656 L -2.199219 42.347656 Z M -2.199219 26.539062 " fill-opacity="1" fill-rule="nonzero"/>
    </g>
    <g clip-path="url(#cd041bda41)">
        <path fill="#012169" d="M 36.222656 -2.488281 L 62.199219 -2.488281 L 62.199219 13.78125 L 36.222656 13.78125 Z M 36.222656 -2.488281 " fill-opacity="1" fill-rule="nonzero"/>
    </g>
    <g clip-path="url(#a48740e3f0)">
        <g clip-path="url(#6b2ca26ed5)">
            <g clip-path="url(#0c89862135)">
                <path fill="#c8102e" d="M 59.003906 -3.234375 L 61.421875 0.0976562 L 1.203125 43.839844 L -1.214844 40.511719 Z M 59.003906 -3.234375 " fill-opacity="1" fill-rule="nonzero"/>
            </g>
        </g>
    </g>
    <g clip-path="url(#d9e79a489d)">
        <path fill="#012169" d="M -3.324219 -4.597656 L 23.777344 -4.597656 L 23.777344 13.78125 L -3.324219 13.78125 Z M -3.324219 -4.597656 " fill-opacity="1" fill-rule="nonzero"/>
    </g>
    <g clip-path="url(#b1ee09de54)">
        <path fill="#012169" d="M 36.222656 26.226562 L 62.199219 26.226562 L 62.199219 42.347656 L 36.222656 42.347656 Z M 36.222656 26.226562 " fill-opacity="1" fill-rule="nonzero"/>
    </g>
    <g clip-path="url(#aafcd952cf)">
        <g clip-path="url(#28d17092bb)">
            <g clip-path="url(#4466943fb3)">
                <path fill="#c8102e" d="M 62.980469 37.269531 L 59.109375 43.234375 L -3.332031 2.726562 L 0.539062 -3.238281 Z M 62.980469 37.269531 " fill-opacity="1" fill-rule="nonzero"/>
            </g>
        </g>
    </g>
    <g clip-path="url(#74a792dbe3)">
        <path fill="#ffffff" d="M 23.777344 -6.761719 L 36.222656 -6.761719 L 36.222656 47.066406 L 23.777344 47.066406 Z M 23.777344 -6.761719 " fill-opacity="1" fill-rule="nonzero"/>
    </g>
    <g clip-path="url(#f33ef24ae1)">
        <path stroke-linecap="butt" transform="matrix(0.595755, -0.440386, 0.440386, 0.595755, 1.771837, 42.646381)" fill="none" stroke-linejoin="miter" d="M -0.00143706 0.999024 L 37.291768 1.001581 " stroke="#ffffff" stroke-width="2" stroke-opacity="1" stroke-miterlimit="4"/>
    </g>
    <g clip-path="url(#e9a534395e)">
        <path fill="#ffffff" d="M -2.765625 26.222656 L -2.765625 13.777344 L 62.199219 13.777344 L 62.199219 26.222656 Z M -2.765625 26.222656 " fill-opacity="1" fill-rule="nonzero"/>
    </g>
    <g clip-path="url(#eee717534e)">
        <path stroke-linecap="butt" transform="matrix(0.618464, 0.40788, -0.40788, 0.618464, -3.713125, 0.729839)" fill="none" stroke-linejoin="miter" d="M -0.000581448 0.999337 L 37.290196 1.000607 " stroke="#ffffff" stroke-width="2" stroke-opacity="1" stroke-miterlimit="4"/>
    </g>
    <g clip-path="url(#dedde3fc96)">
        <path stroke-linecap="butt" transform="matrix(0.62224, 0.402097, -0.402097, 0.62224, 38.794155, 21.353036)" fill="none" stroke-linejoin="miter" d="M -0.000682363 1.002509 L 37.287632 1.000381 " stroke="#ffffff" stroke-width="2" stroke-opacity="1" stroke-miterlimit="4"/>
    </g>
    <g clip-path="url(#b429e5d3d3)">
        <path stroke-linecap="butt" transform="matrix(0.603739, -0.429376, 0.429376, 0.603739, 39.496378, 14.757979)" fill="none" stroke-linejoin="miter" d="M 0.000853348 1.999591 L 37.289215 1.997921 " stroke="#ffffff" stroke-width="4" stroke-opacity="1" stroke-miterlimit="4"/>
    </g>
    <g clip-path="url(#9391aa4ecf)">
        <path stroke-linecap="butt" transform="matrix(0.59736, -0.438206, 0.438206, 0.59736, -2.454889, 38.10209)" fill="none" stroke-linejoin="miter" d="M 0.000330103 2.000351 L 37.291572 2.002724 " stroke="#ffffff" stroke-width="4" stroke-opacity="1" stroke-miterlimit="4"/>
    </g>
    <g clip-path="url(#e60f4bec5d)">
        <path fill="#c8102e" d="M 60.8125 16.441406 L 60.8125 23.851562 L -1.160156 23.851562 L -1.160156 16.441406 Z M 60.8125 16.441406 " fill-opacity="1" fill-rule="nonzero"/>
    </g>
    <g clip-path="url(#767fa87c3e)">
        <path stroke-linecap="butt" transform="matrix(0.600879, -0.433369, 0.433369, 0.600879, 35.034869, 12.9238)" fill="none" stroke-linejoin="miter" d="M 0.00153978 0.999044 L 37.290832 0.998847 " stroke="#ffffff" stroke-width="2" stroke-opacity="1" stroke-miterlimit="4"/>
    </g>
    <g clip-path="url(#1b108041cd)">
        <path fill="#c8102e" d="M 26.445312 -8.6875 L 33.554688 -8.6875 L 33.554688 45.136719 L 26.445312 45.136719 Z M 26.445312 -8.6875 " fill-opacity="1" fill-rule="nonzero"/>
    </g>
    <g clip-path="url(#540f30969f)">
        <path stroke-linecap="butt" transform="matrix(0.621498, 0.403241, -0.403241, 0.621498, 35.907358, 24.865617)" fill="none" stroke-linejoin="miter" d="M 0.00133709 2.000357 L 69.520315 1.997646 " stroke="#ffffff" stroke-width="4" stroke-opacity="1" stroke-miterlimit="4"/>
    </g>
    <g clip-path="url(#fec228b85b)">
        <path stroke-linecap="butt" transform="matrix(0.62224, 0.402097, -0.402097, 0.62224, 1.665116, -2.484786)" fill="none" stroke-linejoin="miter" d="M -0.00313266 1.999001 L 37.292472 1.99844 " stroke="#ffffff" stroke-width="4" stroke-opacity="1" stroke-miterlimit="4"/>
    </g>
</svg>