<?xml version="1.0" encoding="UTF-8" standalone="no"?>
<svg height="26.45px" width="81.8px" xmlns="http://www.w3.org/2000/svg">
    <g transform="matrix(1.0, 0.0, 0.0, 1.0, 40.9, 13.2)">
        <path d="M2.2 -12.65 L38.65 7.65 Q39.8 8.3 40.4 9.55 L40.55 9.75 Q41.1 11.05 40.8 12.5 L40.75 12.65 40.55 13.25 -40.5 13.25 -40.7 12.65 -40.75 12.5 Q-41.1 11.05 -40.5 9.75 L-40.4 9.55 Q-39.8 8.3 -38.6 7.65 L-2.15 -12.65 Q-1.15 -13.2 0.0 -13.2 L0.05 -13.2 Q1.15 -13.2 2.2 -12.65" fill="#d7ff5b" fill-opacity="0.7" fill-rule="evenodd"
              stroke="none"/>
    </g>
</svg>
