<?xml version="1.0" encoding="utf-8"?>
<!-- Generator: Adobe Illustrator 24.1.2, SVG Export Plug-In . SVG Version: 6.00 Build 0)  -->
<svg version="1.1" baseProfile="tiny" id="Calque_1"
     xmlns="http://www.w3.org/2000/svg" x="0px" y="0px" viewBox="0 0 42 42"
     overflow="visible" xml:space="preserve">
<line fill="none" stroke="currentColor" stroke-width="2" stroke-miterlimit="10" x1="41" y1="2" x2="41" y2="0"/>
</svg>
