<?xml version="1.0" encoding="utf-8"?>
<!-- Generator: Adobe Illustrator 24.1.2, SVG Export Plug-In . SVG Version: 6.00 Build 0)  -->
<svg xmlns:xlink="http://www.w3.org/1999/xlink" version="1.1" baseProfile="tiny"
     id="Calque_1" xmlns="http://www.w3.org/2000/svg" x="0px" y="0px" viewBox="0 0 42 42"
     overflow="visible" xml:space="preserve">
<image width="19" height="19" xlink:href="data:image/png;base64,iVBORw0KGgoAAAANSUhEUgAAABQAAAAUCAYAAACNiR0NAAAACXBIWXMAAA3+AAAN/gEmzVBtAAAA
GXRFWHRTb2Z0d2FyZQBBZG9iZSBJbWFnZVJlYWR5ccllPAAAASxJREFUeNpiYBgF9AIOQPwfivdT
bJiqhvT/RWtL/+891fk/vzwAr6FMxJgoLaHKEOCZzyAtCaQ98vGqZSHGwM/fnjLcfLwezL755ABe
tUS58NOnbwzXrzxi+PQRQuMLU0ZC4SevKLY/0NuI4eXhqwzCAvwM7/7/ZjCNdmSwcdBmOHvqNkNG
7CSQkx0JedkBZjMbOyuDrIwog4iiDIOsIC/D3T+/GR7ce8EwrX8zg5e/KfExa2ym+v/0zcn/ZyzO
+68jJfx/faYPGDf7W8K86YAttpnwhduSeXtBXsKlBMWrxCZmsEvkhHj/59jr/PdXF/tvLStIdjqE
u4CPg41BW0qYgYuDnUFOQpTyZEMKGBgDP/34xXD12VvqGQgLQz5OdgYtIE3NootgEQYQYAC0jGvd
thrc1wAAAABJRU5ErkJggg==" transform="matrix(0.7895 0 0 0.7895 3.7294 22.9444)">
</image>
    <rect fill="currentColor" x="2" y="29.4" width="7.6" height="11.4"/>
    <text id="textZombie" transform="matrix(1 0 0 1 2.5679 39.1)" font-family="'ArialMT'" font-size="12px">-</text>
</svg>
